{
  "variants": {
    "age=0": {
      "model": "cobblemon:block/pink_mint_stage_0"
    },
    "age=1": {
      "model": "cobblemon:block/pink_mint_stage_1"
    },
    "age=2": {
      "model": "cobblemon:block/pink_mint_stage_2"
    },
    "age=3": {
      "model": "cobblemon:block/pink_mint_stage_3"
    }
  }
}