{
  "name": "Cofagrigus",
  "nationalPokedexNumber": 563,
  "primaryType": "ghost",
  "abilities": [
    "mummy"
  ],
  "baseStats": {
    "hp": 58,
    "attack": 50,
    "defence": 145,
    "special_attack": 95,
    "special_defence": 105,
    "speed": 30
  },
  "catchRate": 90,
  "maleRatio": 0.5,
  "shoulderMountable": false,
  "baseExperienceYield": 169,
  "experienceGroup": "medium_fast",
  "eggCycles": 25,
  "eggGroups": [
    "mineral",
    "amorphous"
  ],
  "moves": [
    "1:astonish",
    "1:haze",
    "1:nightshade",
    "1:protect",
    "1:scaryface",
    "12:disable",
    "16:willowisp",
    "20:craftyshield",
    "24:hex",
    "25:ominouswind",
    "28:meanlook",
    "32:grudge",
    "38:curse",
    "44:shadowball",
    "50:darkpulse",
    "56:guardsplit",
    "56:powersplit",
    "62:destinybond",
    "tm:allyswitch",
    "tm:attract",
    "tm:bodypress",
    "tm:calmmind",
    "tm:confide",
    "tm:darkpulse",
    "tm:doubleteam",
    "tm:dreameater",
    "tm:embargo",
    "tm:endure",
    "tm:energyball",
    "tm:facade",
    "tm:faketears",
    "tm:flash",
    "tm:frustration",
    "tm:gigaimpact",
    "tm:grassknot",
    "tm:guardswap",
    "tm:hex",
    "tm:hiddenpower",
    "tm:hyperbeam",
    "tm:imprison",
    "tm:infestation",
    "tm:irondefense",
    "tm:nastyplot",
    "tm:payback",
    "tm:phantomforce",
    "tm:powerswap",
    "tm:protect",
    "tm:psychic",
    "tm:psychup",
    "tm:raindance",
    "tm:rest",
    "tm:return",
    "tm:revenge",
    "tm:round",
    "tm:safeguard",
    "tm:scaryface",
    "tm:secretpower",
    "tm:shadowball",
    "tm:shadowclaw",
    "tm:skillswap",
    "tm:sleeptalk",
    "tm:snore",
    "tm:substitute",
    "tm:swagger",
    "tm:telekinesis",
    "tm:thief",
    "tm:toxic",
    "tm:toxicspikes",
    "tm:trick",
    "tm:trickroom",
    "tm:willowisp",
    "tm:wonderroom",
    "tm:zenheadbutt",
    "tutor:afteryou",
    "tutor:allyswitch",
    "tutor:block",
    "tutor:darkpulse",
    "tutor:irondefense",
    "tutor:knockoff",
    "tutor:magiccoat",
    "tutor:painsplit",
    "tutor:poltergeist",
    "tutor:powersplit",
    "tutor:roleplay",
    "tutor:shadowball",
    "tutor:shockwave",
    "tutor:skillswap",
    "tutor:sleeptalk",
    "tutor:snatch",
    "tutor:snore",
    "tutor:spite",
    "tutor:telekinesis",
    "tutor:trick",
    "tutor:willowisp",
    "tutor:wonderroom",
    "tutor:zenheadbutt"
  ],
  "labels": [
    "gen5"
  ],
  "pokedex": [
    "cobblemon.species.cofagrigus.desc"
  ],
  "preEvolution": "yamask",
  "evolutions": [],
  "baseScale": 1,
  "hitbox": {
    "width": 1,
    "height": 1,
    "fixed": false
  },
  "baseFriendship": 50,
  "evYield": {
    "hp": 0,
    "attack": 0,
    "defence": 2,
    "special_attack": 0,
    "special_defence": 0,
    "speed": 0
  },
  "height": 17,
  "weight": 765,
  "aspects": [],
  "cannotDynamax": false
}