{
  "name": "Dusknoir",
  "nationalPokedexNumber": 477,
  "primaryType": "ghost",
  "abilities": [
    "pressure",
    "h:frisk"
  ],
  "baseStats": {
    "hp": 45,
    "attack": 100,
    "defence": 135,
    "special_attack": 65,
    "special_defence": 135,
    "speed": 45
  },
  "catchRate": 45,
  "maleRatio": 0.5,
  "shoulderMountable": false,
  "baseExperienceYield": 263,
  "experienceGroup": "fast",
  "eggCycles": 25,
  "eggGroups": [
    "amorphous"
  ],
  "moves": [
    "1:astonish",
    "1:bind",
    "1:disable",
    "1:firepunch",
    "1:futuresight",
    "1:gravity",
    "1:icepunch",
    "1:leer",
    "1:nightshade",
    "1:shadowpunch",
    "1:shadowsneak",
    "1:thunderpunch",
    "9:foresight",
    "12:confuseray",
    "14:astonish",
    "14:foresight",
    "16:nightshade",
    "17:confuseray",
    "17:shadowsneak",
    "20:payback",
    "22:pursuit",
    "22:shadowsneak",
    "24:willowisp",
    "25:pursuit",
    "25:willowisp",
    "28:meanlook",
    "30:confuseray",
    "30:curse",
    "32:hex",
    "33:curse",
    "33:willowisp",
    "36:curse",
    "37:shadowpunch",
    "40:hex",
    "42:hex",
    "42:shadowball",
    "43:meanlook",
    "45:shadowball",
    "48:futuresight",
    "49:meanlook",
    "51:payback",
    "52:meanlook",
    "54:destinybond",
    "57:payback",
    "58:payback",
    "61:futuresight",
    "tm:allyswitch",
    "tm:attract",
    "tm:blizzard",
    "tm:bodyslam",
    "tm:brickbreak",
    "tm:bulldoze",
    "tm:calmmind",
    "tm:captivate",
    "tm:chargebeam",
    "tm:confide",
    "tm:darkestlariat",
    "tm:darkpulse",
    "tm:doubleteam",
    "tm:dreameater",
    "tm:earthquake",
    "tm:embargo",
    "tm:endure",
    "tm:facade",
    "tm:firepunch",
    "tm:flash",
    "tm:fling",
    "tm:focusblast",
    "tm:focuspunch",
    "tm:frustration",
    "tm:futuresight",
    "tm:gigaimpact",
    "tm:helpinghand",
    "tm:hex",
    "tm:hiddenpower",
    "tm:hyperbeam",
    "tm:icebeam",
    "tm:icepunch",
    "tm:icywind",
    "tm:imprison",
    "tm:infestation",
    "tm:megakick",
    "tm:megapunch",
    "tm:metronome",
    "tm:naturalgift",
    "tm:payback",
    "tm:poweruppunch",
    "tm:protect",
    "tm:psychic",
    "tm:psychup",
    "tm:raindance",
    "tm:rest",
    "tm:return",
    "tm:revenge",
    "tm:rockslide",
    "tm:rocksmash",
    "tm:rocktomb",
    "tm:round",
    "tm:secretpower",
    "tm:shadowball",
    "tm:skillswap",
    "tm:sleeptalk",
    "tm:snatch",
    "tm:snore",
    "tm:strength",
    "tm:substitute",
    "tm:sunnyday",
    "tm:swagger",
    "tm:taunt",
    "tm:telekinesis",
    "tm:thief",
    "tm:thunderpunch",
    "tm:torment",
    "tm:toxic",
    "tm:trick",
    "tm:trickroom",
    "tm:willowisp",
    "tm:wonderroom",
    "tutor:allyswitch",
    "tutor:bind",
    "tutor:darkpulse",
    "tutor:firepunch",
    "tutor:focuspunch",
    "tutor:gravity",
    "tutor:headbutt",
    "tutor:icepunch",
    "tutor:icywind",
    "tutor:laserfocus",
    "tutor:mudslap",
    "tutor:ominouswind",
    "tutor:painsplit",
    "tutor:poltergeist",
    "tutor:skillswap",
    "tutor:skittersmack",
    "tutor:sleeptalk",
    "tutor:snatch",
    "tutor:snore",
    "tutor:spite",
    "tutor:suckerpunch",
    "tutor:telekinesis",
    "tutor:thunderpunch",
    "tutor:trick",
    "tutor:wonderroom"
  ],
  "labels": [
    "gen4"
  ],
  "pokedex": [
    "cobblemon.species.dusknoir.desc"
  ],
  "preEvolution": "dusclops",
  "evolutions": [],
  "baseScale": 1,
  "hitbox": {
    "width": 1,
    "height": 1,
    "fixed": false
  },
  "baseFriendship": 35,
  "evYield": {
    "hp": 0,
    "attack": 0,
    "defence": 1,
    "special_attack": 0,
    "special_defence": 2,
    "speed": 0
  },
  "height": 22,
  "weight": 1066,
  "aspects": [],
  "cannotDynamax": false
}