{
  "name": "Ribombee",
  "nationalPokedexNumber": 743,
  "primaryType": "bug",
  "secondaryType": "fairy",
  "abilities": [
    "honeygather",
    "shielddust",
    "h:sweetveil"
  ],
  "baseStats": {
    "hp": 60,
    "attack": 55,
    "defence": 60,
    "special_attack": 95,
    "special_defence": 70,
    "speed": 124
  },
  "catchRate": 75,
  "maleRatio": 0.5,
  "shoulderMountable": false,
  "forms": [
    {
      "name": "Totem",
      "primaryType": "bug",
      "secondaryType": "fairy",
      "abilities": [
        "sweetveil"
      ],
      "baseStats": {
        "hp": 60,
        "attack": 55,
        "defence": 60,
        "special_attack": 95,
        "special_defence": 70,
        "speed": 124
      },
      "catchRate": 75,
      "maleRatio": 0.5,
      "baseExperienceYield": 162,
      "baseFriendship": 50,
      "evYield": {
        "hp": 0,
        "attack": 0,
        "defence": 0,
        "special_attack": 0,
        "special_defence": 0,
        "speed": 2
      },
      "experienceGroup": "medium_fast",
      "eggCycles": 20,
      "eggGroups": [
        "bug",
        "fairy"
      ],
      "moves": [
        "1:absorb",
        "1:fairywind",
        "1:pollenpuff",
        "1:strugglebug",
        "1:stunspore",
        "13:silverwind",
        "16:drainingkiss",
        "21:sweetscent",
        "28:bugbuzz",
        "35:dazzlinggleam",
        "42:aromatherapy",
        "49:quiverdance",
        "tm:acrobatics",
        "tm:aerialace",
        "tm:attract",
        "tm:calmmind",
        "tm:confide",
        "tm:dazzlinggleam",
        "tm:doubleteam",
        "tm:dreameater",
        "tm:energyball",
        "tm:facade",
        "tm:frustration",
        "tm:hiddenpower",
        "tm:infestation",
        "tm:leechlife",
        "tm:lightscreen",
        "tm:naturepower",
        "tm:protect",
        "tm:psychic",
        "tm:psychup",
        "tm:reflect",
        "tm:rest",
        "tm:return",
        "tm:roost",
        "tm:round",
        "tm:safeguard",
        "tm:sleeptalk",
        "tm:solarbeam",
        "tm:substitute",
        "tm:sunnyday",
        "tm:swagger",
        "tm:thief",
        "tm:toxic",
        "tm:uturn",
        "tutor:afteryou",
        "tutor:allyswitch",
        "tutor:aromatherapy",
        "tutor:bugbite",
        "tutor:bugbuzz",
        "tutor:covet",
        "tutor:dazzlinggleam",
        "tutor:defog",
        "tutor:helpinghand",
        "tutor:lastresort",
        "tutor:magicroom",
        "tutor:quiverdance",
        "tutor:signalbeam",
        "tutor:skillswap",
        "tutor:snore",
        "tutor:tailwind",
        "tutor:telekinesis",
        "tutor:trick",
        "tutor:wonderroom"
      ],
      "labels": [
        "gen7",
        "totem"
      ],
      "aspects": [
        "totem"
      ],
      "height": 4,
      "weight": 20,
      "evolutions": [],
      "cannotDynamax": false,
      "battleOnly": false
    }
  ],
  "baseExperienceYield": 162,
  "experienceGroup": "medium_fast",
  "eggCycles": 20,
  "eggGroups": [
    "bug",
    "fairy"
  ],
  "moves": [
    "1:absorb",
    "1:covet",
    "1:fairywind",
    "1:pollenpuff",
    "1:stunspore",
    "1:sweetscent",
    "13:silverwind",
    "18:drainingkiss",
    "24:strugglebug",
    "32:aromatherapy",
    "40:switcheroo",
    "48:dazzlinggleam",
    "56:bugbuzz",
    "64:quiverdance",
    "tm:acrobatics",
    "tm:aerialace",
    "tm:allyswitch",
    "tm:attract",
    "tm:batonpass",
    "tm:bugbuzz",
    "tm:calmmind",
    "tm:charm",
    "tm:confide",
    "tm:dazzlinggleam",
    "tm:doubleteam",
    "tm:drainingkiss",
    "tm:dreameater",
    "tm:endure",
    "tm:energyball",
    "tm:facade",
    "tm:faketears",
    "tm:frustration",
    "tm:gigaimpact",
    "tm:helpinghand",
    "tm:hiddenpower",
    "tm:hyperbeam",
    "tm:imprison",
    "tm:infestation",
    "tm:leechlife",
    "tm:lightscreen",
    "tm:magicalleaf",
    "tm:magicroom",
    "tm:naturepower",
    "tm:playrough",
    "tm:pollenpuff",
    "tm:protect",
    "tm:psychic",
    "tm:psychup",
    "tm:reflect",
    "tm:rest",
    "tm:return",
    "tm:roost",
    "tm:round",
    "tm:safeguard",
    "tm:skillswap",
    "tm:sleeptalk",
    "tm:snore",
    "tm:solarbeam",
    "tm:speedswap",
    "tm:substitute",
    "tm:sunnyday",
    "tm:swagger",
    "tm:swift",
    "tm:thief",
    "tm:toxic",
    "tm:trick",
    "tm:uturn",
    "tm:wonderroom",
    "tutor:afteryou",
    "tutor:allyswitch",
    "tutor:bugbite",
    "tutor:covet",
    "tutor:defog",
    "tutor:dualwingbeat",
    "tutor:helpinghand",
    "tutor:lastresort",
    "tutor:magicroom",
    "tutor:signalbeam",
    "tutor:skillswap",
    "tutor:snore",
    "tutor:tailwind",
    "tutor:telekinesis",
    "tutor:trick",
    "tutor:wonderroom"
  ],
  "labels": [
    "gen7"
  ],
  "pokedex": [
    "cobblemon.species.ribombee.desc"
  ],
  "preEvolution": "cutiefly",
  "evolutions": [],
  "baseScale": 1,
  "hitbox": {
    "width": 1,
    "height": 1,
    "fixed": false
  },
  "baseFriendship": 50,
  "evYield": {
    "hp": 0,
    "attack": 0,
    "defence": 0,
    "special_attack": 0,
    "special_defence": 0,
    "speed": 2
  },
  "height": 2,
  "weight": 5,
  "aspects": [],
  "cannotDynamax": false
}